{
  "Basic theme": {
    "灰_深黑": {
      "value": "rgba(0,0,0,0.85)",
      "type": "color"
    },
    "灰_中黑": {
      "value": "rgba(0,0,0,0.65)",
      "type": "color"
    },
    "灰_遮罩": {
      "value": "rgba(0,0,0,0.6)",
      "type": "color"
    },
    "灰_浅黑": {
      "value": "rgba(0,0,0,0.45)",
      "type": "color"
    },
    "灰_失效": {
      "value": "rgba(0,0,0,0.25)",
      "type": "color"
    },
    "灰_边框": {
      "value": "rgba(0,0,0,0.15)",
      "type": "color"
    },
    "灰_分割线": {
      "value": "rgba(0,0,0,0.08)",
      "type": "color"
    },
    "灰_背景": {
      "value": "rgba(0,0,0,0.08)",
      "type": "color"
    },
    "灰_悬浮": {
      "value": "rgba(0,0,0,0.03)",
      "type": "color"
    },
    "灰_表头": {
      "value": "rgba(0,0,0,0.02)",
      "type": "color"
    },
    "白": {
      "value": "#fff",
      "type": "color"
    },
    "投影": {
      "对话框、弹窗": {
        "value": [
          {
            "color": "#00000008",
            "type": "dropShadow",
            "x": 0,
            "y": 12,
            "blur": 48,
            "spread": 16
          },
          {
            "color": "#0000000d",
            "type": "dropShadow",
            "x": 0,
            "y": 9,
            "blur": 28,
            "spread": 0
          },
          {
            "color": "#00000014",
            "type": "dropShadow",
            "x": 0,
            "y": 6,
            "blur": 16,
            "spread": -8
          }
        ],
        "type": "boxShadow"
      },
      "卡片、hover": {
        "value": [
          {
            "color": "#00000017",
            "type": "dropShadow",
            "x": 0,
            "y": 5,
            "blur": 12,
            "spread": 4
          },
          {
            "color": "#0000001f",
            "type": "dropShadow",
            "x": 0,
            "y": 3,
            "blur": 6,
            "spread": 0
          },
          {
            "color": "#00000029",
            "type": "dropShadow",
            "x": 0,
            "y": 1,
            "blur": 2,
            "spread": -2
          }
        ],
        "type": "boxShadow"
      },
      "下拉面板": {
        "value": [
          {
            "color": "#0000000d",
            "type": "dropShadow",
            "x": 0,
            "y": 9,
            "blur": 28,
            "spread": 8
          },
          {
            "color": "#00000014",
            "type": "dropShadow",
            "x": 0,
            "y": 6,
            "blur": 16,
            "spread": 0
          },
          {
            "color": "#0000001f",
            "type": "dropShadow",
            "x": 0,
            "y": 3,
            "blur": 6,
            "spread": -4
          }
        ],
        "type": "boxShadow"
      }
    },
    "边框": {
      "左描边": {
        "value": [
          {
            "color": "#d9d9d9",
            "type": "innerShadow",
            "x": 0,
            "y": 1,
            "blur": 0,
            "spread": 0
          },
          {
            "color": "#d9d9d9",
            "type": "innerShadow",
            "x": 0,
            "y": -1,
            "blur": 0,
            "spread": 0
          },
          {
            "color": "#d9d9d9",
            "type": "innerShadow",
            "x": 1,
            "y": 0,
            "blur": 0,
            "spread": 0
          }
        ],
        "type": "boxShadow"
      },
      "右描边": {
        "value": [
          {
            "color": "#d9d9d9",
            "type": "innerShadow",
            "x": 0,
            "y": 1,
            "blur": 0,
            "spread": 0
          },
          {
            "color": "#d9d9d9",
            "type": "innerShadow",
            "x": 0,
            "y": -1,
            "blur": 0,
            "spread": 0
          },
          {
            "color": "#d9d9d9",
            "type": "innerShadow",
            "x": -1,
            "y": 0,
            "blur": 0,
            "spread": 0
          }
        ],
        "type": "boxShadow"
      },
      "上下描边": {
        "value": [
          {
            "color": "#d9d9d9",
            "type": "innerShadow",
            "x": 0,
            "y": 1,
            "blur": 0,
            "spread": 0
          },
          {
            "color": "#d9d9d9",
            "type": "innerShadow",
            "x": 0,
            "y": -1,
            "blur": 0,
            "spread": 0
          }
        ],
        "type": "boxShadow"
      }
    },
    "fontFamilies": {
      "pingfang-sc": {
        "value": "PingFang SC",
        "type": "fontFamilies"
      }
    },
    "lineHeights": {
      "0": {
        "value": "32",
        "type": "lineHeights"
      },
      "1": {
        "value": "28",
        "type": "lineHeights"
      },
      "2": {
        "value": "24",
        "type": "lineHeights"
      },
      "3": {
        "value": "22",
        "type": "lineHeights"
      },
      "4": {
        "value": "20",
        "type": "lineHeights"
      }
    },
    "fontWeights": {
      "pingfang-sc-0": {
        "value": "Medium",
        "type": "fontWeights"
      },
      "pingfang-sc-1": {
        "value": "Regular",
        "type": "fontWeights"
      }
    },
    "fontSize": {
      "0": {
        "value": "12",
        "type": "fontSizes"
      },
      "1": {
        "value": "14",
        "type": "fontSizes"
      },
      "2": {
        "value": "16",
        "type": "fontSizes"
      },
      "3": {
        "value": "20",
        "type": "fontSizes"
      },
      "4": {
        "value": "24",
        "type": "fontSizes"
      }
    },
    "letterSpacing": {
      "0": {
        "value": "0",
        "type": "letterSpacing"
      }
    },
    "paragraphSpacing": {
      "0": {
        "value": "0",
        "type": "paragraphSpacing"
      }
    },
    "24 - 大标题 - 加粗": {
      "value": {
        "fontFamily": "$fontFamilies.pingfang-sc",
        "fontWeight": "$fontWeights.pingfang-sc-0",
        "lineHeight": "$lineHeights.0",
        "fontSize": "$fontSize.4",
        "letterSpacing": "$letterSpacing.0",
        "paragraphSpacing": "$paragraphSpacing.0",
        "textCase": "$textCase.none",
        "textDecoration": "$textDecoration.none"
      },
      "type": "typography"
    },
    "24 - 大标题": {
      "value": {
        "fontFamily": "$fontFamilies.pingfang-sc",
        "fontWeight": "$fontWeights.pingfang-sc-1",
        "lineHeight": "$lineHeights.0",
        "fontSize": "$fontSize.4",
        "letterSpacing": "$letterSpacing.0",
        "paragraphSpacing": "$paragraphSpacing.0",
        "textCase": "$textCase.none",
        "textDecoration": "$textDecoration.none"
      },
      "type": "typography"
    },
    "20 - 页面标题 - 加粗": {
      "value": {
        "fontFamily": "$fontFamilies.pingfang-sc",
        "fontWeight": "$fontWeights.pingfang-sc-0",
        "lineHeight": "$lineHeights.1",
        "fontSize": "$fontSize.3",
        "letterSpacing": "$letterSpacing.0",
        "paragraphSpacing": "$paragraphSpacing.0",
        "textCase": "$textCase.none",
        "textDecoration": "$textDecoration.none"
      },
      "type": "typography"
    },
    "20 - 页面标题": {
      "value": {
        "fontFamily": "$fontFamilies.pingfang-sc",
        "fontWeight": "$fontWeights.pingfang-sc-1",
        "lineHeight": "$lineHeights.1",
        "fontSize": "$fontSize.3",
        "letterSpacing": "$letterSpacing.0",
        "paragraphSpacing": "$paragraphSpacing.0",
        "textCase": "$textCase.none",
        "textDecoration": "$textDecoration.none"
      },
      "type": "typography"
    },
    "16 - 模块标题 - 加粗": {
      "value": {
        "fontFamily": "$fontFamilies.pingfang-sc",
        "fontWeight": "$fontWeights.pingfang-sc-0",
        "lineHeight": "$lineHeights.2",
        "fontSize": "$fontSize.2",
        "letterSpacing": "$letterSpacing.0",
        "paragraphSpacing": "$paragraphSpacing.0",
        "textCase": "$textCase.none",
        "textDecoration": "$textDecoration.none"
      },
      "type": "typography"
    },
    "16 - 模块标题": {
      "value": {
        "fontFamily": "$fontFamilies.pingfang-sc",
        "fontWeight": "$fontWeights.pingfang-sc-1",
        "lineHeight": "$lineHeights.2",
        "fontSize": "$fontSize.2",
        "letterSpacing": "$letterSpacing.0",
        "paragraphSpacing": "$paragraphSpacing.0",
        "textCase": "$textCase.none",
        "textDecoration": "$textDecoration.none"
      },
      "type": "typography"
    },
    "14 - 正文文本 - 加粗": {
      "value": {
        "fontFamily": "$fontFamilies.pingfang-sc",
        "fontWeight": "$fontWeights.pingfang-sc-0",
        "lineHeight": "$lineHeights.3",
        "fontSize": "$fontSize.1",
        "letterSpacing": "$letterSpacing.0",
        "paragraphSpacing": "$paragraphSpacing.0",
        "textCase": "$textCase.none",
        "textDecoration": "$textDecoration.none"
      },
      "type": "typography"
    },
    "14  - 正文文本": {
      "value": {
        "fontFamily": "$fontFamilies.pingfang-sc",
        "fontWeight": "$fontWeights.pingfang-sc-1",
        "lineHeight": "$lineHeights.3",
        "fontSize": "$fontSize.1",
        "letterSpacing": "$letterSpacing.0",
        "paragraphSpacing": "$paragraphSpacing.0",
        "textCase": "$textCase.none",
        "textDecoration": "$textDecoration.none"
      },
      "type": "typography"
    },
    "12 - Meduim": {
      "value": {
        "fontFamily": "$fontFamilies.pingfang-sc",
        "fontWeight": "$fontWeights.pingfang-sc-0",
        "lineHeight": "$lineHeights.4",
        "fontSize": "$fontSize.0",
        "letterSpacing": "$letterSpacing.0",
        "paragraphSpacing": "$paragraphSpacing.0",
        "textCase": "$textCase.none",
        "textDecoration": "$textDecoration.none"
      },
      "type": "typography"
    },
    "12 - Regular": {
      "value": {
        "fontFamily": "$fontFamilies.pingfang-sc",
        "fontWeight": "$fontWeights.pingfang-sc-1",
        "lineHeight": "$lineHeights.4",
        "fontSize": "$fontSize.0",
        "letterSpacing": "$letterSpacing.0",
        "paragraphSpacing": "$paragraphSpacing.0",
        "textCase": "$textCase.none",
        "textDecoration": "$textDecoration.none"
      },
      "type": "typography"
    },
    "主色_高亮色": {
      "value": "#1890ff",
      "type": "color"
    },
    "主色_悬浮色": {
      "value": "#40a9ff",
      "type": "color"
    },
    "主色_点击色": {
      "value": "#096dd9",
      "type": "color"
    },
    "主色_选中色": {
      "value": "#e6f7ff",
      "type": "color"
    },
    "Primary - 主色": {
      "高亮色": {
        "value": "#1890ff",
        "type": "color"
      },
      "悬浮色": {
        "value": "#40a9ff",
        "type": "color"
      },
      "点击色": {
        "value": "#096dd9",
        "type": "color"
      },
      "选中色": {
        "value": "#e6f7ff",
        "type": "color"
      }
    },
    "Fuctional - 功能": {
      "成功色": {
        "value": "#52c41a",
        "type": "color"
      },
      "警告色": {
        "value": "#faad14",
        "type": "color"
      },
      "错误色": {
        "value": "#ff4d4f",
        "type": "color"
      },
      "状态色": {
        "value": "#9254de",
        "type": "color"
      }
    },
    "Grey - 灰": {
      "白色": {
        "value": "#ffffff",
        "type": "color"
      },
      "深黑 - 85%": {
        "value": "#262626",
        "type": "color"
      },
      "中黑 - 65%": {
        "value": "#595959",
        "type": "color"
      },
      "遮罩 - 60%": {
        "value": "#00000099",
        "type": "color"
      },
      "浅黑 - 45%": {
        "value": "#8c8c8c",
        "type": "color"
      },
      "失效 - 25%": {
        "value": "#bfbfbf",
        "type": "color"
      },
      "边框 - 15%": {
        "value": "#d9d9d9",
        "type": "color"
      },
      "分割线 - 8%": {
        "value": "#f0f0f0",
        "type": "color"
      },
      "背景 - 4%": {
        "value": "#f5f5f5",
        "type": "color"
      },
      "悬浮 - 3%": {
        "value": "#f7f7f7",
        "type": "color"
      },
      "表头 - 2%": {
        "value": "#fafafa",
        "type": "color"
      }
    },
    "textCase": {
      "none": {
        "value": "none",
        "type": "textCase"
      }
    },
    "textDecoration": {
      "none": {
        "value": "none",
        "type": "textDecoration"
      }
    }
  }
}